# Set here the list of files you use in your design
# For example:
#   verilog work local_file.v
#   vhdl    work local_file.vhd
#   verilog work d:\full\path\to\file.v
#   vhdl    work d:\full\path\to\file.vhd

# Top
verilog work stand_kpa_us17a.v
verilog work id.v
verilog work current_protector.v
verilog work memory.v

verilog work d:\projects\hdl\design_and_reuse\invertor.v
verilog work d:\projects\hdl\design_and_reuse\dec5_to_32.v
verilog work d:\projects\hdl\design_and_reuse\mux32_by8.v
verilog work d:\projects\hdl\design_and_reuse\reg8.v
verilog work d:\projects\hdl\design_and_reuse\demux4_to16.v
verilog work d:\projects\hdl\design_and_reuse\my_constant.v

# SPI slave
verilog work d:\projects\hdl\design_and_reuse\spi_slave\spi_input_buffer.v
verilog work d:\projects\hdl\design_and_reuse\spi_slave\spi_output_buffer.v
verilog work d:\projects\hdl\design_and_reuse\spi_slave\spi_slave_statmach.v
verilog work d:\projects\hdl\design_and_reuse\spi_slave\spi_slave.v
verilog work spi_slave_test_memory.v
verilog work d:\projects\hdl\design_and_reuse\and_2in.v
verilog work d:\projects\hdl\design_and_reuse\and_3in.v
verilog work d:\projects\hdl\design_and_reuse\demux_2out_by1.v

# I2C master
verilog work d:\projects\hdl\design_and_reuse\i2c_master\i2c_master_statmach.v
verilog work at_worker.v
verilog work d:\projects\hdl\design_and_reuse\mux_2in_by8.v
verilog work d:\projects\hdl\design_and_reuse\mux_2in_by1.v
